[
  {"name":"Brno-Černovice (část) x)","psc":"60200"},
  {"name":"Brno-Komárov (část) x)","psc":"60200"},
  {"name":"Brno-Královo Pole (část) x)","psc":"60200"},
  {"name":"Brno-město","psc":"60200"},
  {"name":"Brno-Ponava (část) x)","psc":"60200"},
  {"name":"Brno-Staré Brno (část) x)","psc":"60200"},
  {"name":"Brno-Stránice (část) x)","psc":"60200"},
  {"name":"Brno-Trnitá (část) x)","psc":"60200"},
  {"name":"Brno-Veveří (část) x)","psc":"60200"},
  {"name":"Brno-Zábrdovice (část) x)","psc":"60200"},
  {"name":"Brno-Žabovřesky (část) x)","psc":"60200"},
  {"name":"Černá Pole (Brno-sever) (část)","psc":"60200"},
  {"name":"Černá Pole (Brno-střed)","psc":"60200"},
  {"name":"Černovice (část)","psc":"60200"},
  {"name":"Komárov (část)","psc":"60200"},
  {"name":"Královo Pole (část)","psc":"60200"},
  {"name":"Pisárky (Brno-střed) (část)","psc":"60200"},
  {"name":"Ponava (část)","psc":"60200"},
  {"name":"Staré Brno (část)","psc":"60200"},
  {"name":"Stránice (část)","psc":"60200"},
  {"name":"Trnitá (Brno-jih) (část)","psc":"60200"},
  {"name":"Trnitá (Brno-střed) (část)","psc":"60200"},
  {"name":"Veveří (část)","psc":"60200"},
  {"name":"Zábrdovice (Brno-sever) (část)","psc":"60200"},
  {"name":"Zábrdovice (Brno-střed) (část)","psc":"60200"},
  {"name":"Zábrdovice (Brno-Židenice) (část)","psc":"60200"},
  {"name":"Žabovřesky (část)","psc":"60200"},
  {"name":"Brno-Staré Brno (část) x)","psc":"60300"},
  {"name":"Pisárky (Brno-Kohoutovice) (část)","psc":"60300"},
  {"name":"Pisárky (Brno-střed) (část)","psc":"60300"},
  {"name":"Staré Brno (část)","psc":"60300"},
  {"name":"Brno-Královo Pole (část) x)","psc":"61200"},
  {"name":"Brno-Lesná (část) x)","psc":"61200"},
  {"name":"Brno-Medlánky (část) x)","psc":"61200"},
  {"name":"Brno-Ponava (část) x)","psc":"61200"},
  {"name":"Brno-Řečkovice (část) x)","psc":"61200"},
  {"name":"Brno-Sadová x)","psc":"61200"},
  {"name":"Královo Pole (část)","psc":"61200"},
  {"name":"Lesná (část)","psc":"61200"},
  {"name":"Medlánky (část)","psc":"61200"},
  {"name":"Ponava (část)","psc":"61200"},
  {"name":"Řečkovice (část)","psc":"61200"},
  {"name":"Sadová","psc":"61200"},
  {"name":"Brno-Husovice (část) x)","psc":"61300"},
  {"name":"Černá Pole (Brno-sever) (část)","psc":"61300"},
  {"name":"Husovice (část)","psc":"61300"},
  {"name":"Zábrdovice (Brno-sever) (část)","psc":"61300"},
  {"name":"Brno-Husovice (část) x)","psc":"61400"},
  {"name":"Brno-Lesná (část) x)","psc":"61400"},
  {"name":"Brno-Obřany (část) x)","psc":"61400"},
  {"name":"Černá Pole (Brno-sever) (část)","psc":"61400"},
  {"name":"Husovice (část)","psc":"61400"},
  {"name":"Lesná (část)","psc":"61400"},
  {"name":"Maloměřice (Brno-Maloměřice a Obřany) (část)","psc":"61400"},
  {"name":"Obřany (část)","psc":"61400"},
  {"name":"Zábrdovice (Brno-sever) (část)","psc":"61400"},
  {"name":"Brno-Zábrdovice (část) x)","psc":"61500"},
  {"name":"Maloměřice (Brno-Maloměřice a Obřany) (část)","psc":"61500"},
  {"name":"Zábrdovice (Brno-střed) (část)","psc":"61500"},
  {"name":"Zábrdovice (Brno-Židenice) (část)","psc":"61500"},
  {"name":"Židenice (Brno-Židenice) (část)","psc":"61500"},
  {"name":"Brno-Komín (část) x)","psc":"61600"},
  {"name":"Brno-Královo Pole (část) x)","psc":"61600"},
  {"name":"Brno-Stránice (část) x)","psc":"61600"},
  {"name":"Brno-Veveří (část) x)","psc":"61600"},
  {"name":"Brno-Žabovřesky (část) x)","psc":"61600"},
  {"name":"Komín (část)","psc":"61600"},
  {"name":"Královo Pole (část)","psc":"61600"},
  {"name":"Stránice (část)","psc":"61600"},
  {"name":"Veveří (část)","psc":"61600"},
  {"name":"Žabovřesky (část)","psc":"61600"},
  {"name":"Brněnské Ivanovice (část)","psc":"61700"},
  {"name":"Brno-Brněnské Ivanovice (část) x)","psc":"61700"},
  {"name":"Brno-Dolní Heršpice (část) x)","psc":"61700"},
  {"name":"Brno-Horní Heršpice (část) x)","psc":"61700"},
  {"name":"Brno-Komárov (část) x)","psc":"61700"},
  {"name":"Brno-Trnitá (část) x)","psc":"61700"},
  {"name":"Dolní Heršpice (část)","psc":"61700"},
  {"name":"Horní Heršpice (část)","psc":"61700"},
  {"name":"Komárov (část)","psc":"61700"},
  {"name":"Trnitá (Brno-střed) (část)","psc":"61700"},
  {"name":"Brno-Černovice (část) x)","psc":"61800"},
  {"name":"Brno-Komárov (část) x)","psc":"61800"},
  {"name":"Černovice (část)","psc":"61800"},
  {"name":"Komárov (část)","psc":"61800"},
  {"name":"Trnitá (Brno-jih) (část)","psc":"61800"},
  {"name":"Židenice (Brno-Židenice) (část)","psc":"61800"},
  {"name":"Bohunice (část)","psc":"61900"},
  {"name":"Brno-Bohunice (část) x)","psc":"61900"},
  {"name":"Brno-Dolní Heršpice (část) x)","psc":"61900"},
  {"name":"Brno-Horní Heršpice (část) x)","psc":"61900"},
  {"name":"Brno-Přízřenice x)","psc":"61900"},
  {"name":"Brno-Štýřice (část) x)","psc":"61900"},
  {"name":"Dolní Heršpice (část)","psc":"61900"},
  {"name":"Horní Heršpice (část)","psc":"61900"},
  {"name":"Přízřenice","psc":"61900"},
  {"name":"Štýřice (část)","psc":"61900"},
  {"name":"Brněnské Ivanovice (část)","psc":"62000"},
  {"name":"Brno-Brněnské Ivanovice (část) x)","psc":"62000"},
  {"name":"Brno-Dvorska x)","psc":"62000"},
  {"name":"Brno-Holásky x)","psc":"62000"},
  {"name":"Brno-Chrlice (část) x)","psc":"62000"},
  {"name":"Brno-Tuřany (část) x)","psc":"62000"},
  {"name":"Dvorska","psc":"62000"},
  {"name":"Holásky","psc":"62000"},
  {"name":"Chrlice (část)","psc":"62000"},
  {"name":"Tuřany (část)","psc":"62000"},
  {"name":"Brno-Ivanovice x)","psc":"62100"},
  {"name":"Brno-Jehnice x)","psc":"62100"},
  {"name":"Brno-Medlánky (část) x)","psc":"62100"},
  {"name":"Brno-Mokrá Hora x)","psc":"62100"},
  {"name":"Brno-Ořešín x)","psc":"62100"},
  {"name":"Brno-Řečkovice (část) x)","psc":"62100"},
  {"name":"Ivanovice","psc":"62100"},
  {"name":"Jehnice","psc":"62100"},
  {"name":"Medlánky (část)","psc":"62100"},
  {"name":"Mokrá Hora","psc":"62100"},
  {"name":"Ořešín","psc":"62100"},
  {"name":"Řečkovice (část)","psc":"62100"},
  {"name":"Brno-Kohoutovice x)","psc":"62300"},
  {"name":"Kohoutovice","psc":"62300"},
  {"name":"Pisárky (Brno-Kohoutovice) (část)","psc":"62300"},
  {"name":"Brno-Komín (část) x)","psc":"62400"},
  {"name":"Komín (část)","psc":"62400"},
  {"name":"Bohunice (část)","psc":"62500"},
  {"name":"Brno-Bohunice (část) x)","psc":"62500"},
  {"name":"Brno-Starý Lískovec x)","psc":"62500"},
  {"name":"Starý Lískovec","psc":"62500"},
  {"name":"Brno-Černovice (část) x)","psc":"62700"},
  {"name":"Brno-Slatina x)","psc":"62700"},
  {"name":"Brno-Tuřany (část) x)","psc":"62700"},
  {"name":"Černovice (část)","psc":"62700"},
  {"name":"Slatina","psc":"62700"},
  {"name":"Tuřany (část)","psc":"62700"},
  {"name":"Brno-Líšeň (část) x)","psc":"62800"},
  {"name":"Líšeň (část)","psc":"62800"},
  {"name":"Židenice (Brno-Vinohrady) (část)","psc":"62800"},
  {"name":"Židenice (Brno-Židenice) (část)","psc":"62800"},
  {"name":"Nový Lískovec","psc":"63400"},
  {"name":"Pisárky (Brno-střed) (část)","psc":"63400"},
  {"name":"Brno-Bystrc (část) x)","psc":"63500"},
  {"name":"Brno-Kníničky (část) x)","psc":"63500"},
  {"name":"Brno-Komín (část) x)","psc":"63500"},
  {"name":"Brno-Žebětín (část) x)","psc":"63500"},
  {"name":"Bystrc (část)","psc":"63500"},
  {"name":"Kníničky (část)","psc":"63500"},
  {"name":"Komín (část)","psc":"63500"},
  {"name":"Žebětín (část)","psc":"63500"},
  {"name":"Brno-Líšeň (část) x)","psc":"63600"},
  {"name":"Líšeň (část)","psc":"63600"},
  {"name":"Židenice (Brno-Vinohrady) (část)","psc":"63600"},
  {"name":"Židenice (Brno-Židenice) (část)","psc":"63600"},
  {"name":"Brno-Pisárky x)","psc":"63700"},
  {"name":"Brno-Žabovřesky (část) x)","psc":"63700"},
  {"name":"Jundrov (Brno-Jundrov)","psc":"63700"},
  {"name":"Pisárky (Brno-Jundrov)","psc":"63700"},
  {"name":"Pisárky (Brno-Kohoutovice) (část)","psc":"63700"},
  {"name":"Pisárky (Brno-střed) (část)","psc":"63700"},
  {"name":"Žabovřesky (část)","psc":"63700"},
  {"name":"Brno-Husovice (část) x)","psc":"63800"},
  {"name":"Brno-Lesná (část) x)","psc":"63800"},
  {"name":"Husovice (část)","psc":"63800"},
  {"name":"Lesná (část)","psc":"63800"},
  {"name":"Bohunice (část)","psc":"63900"},
  {"name":"Brno-Bohunice (část) x)","psc":"63900"},
  {"name":"Brno-Staré Brno (část) x)","psc":"63900"},
  {"name":"Brno-Štýřice (část) x)","psc":"63900"},
  {"name":"Pisárky (Brno-střed) (část)","psc":"63900"},
  {"name":"Staré Brno (část)","psc":"63900"},
  {"name":"Štýřice (část)","psc":"63900"},
  {"name":"Brno-Žebětín (část) x)","psc":"64100"},
  {"name":"Žebětín (část)","psc":"64100"},
  {"name":"Bosonohy","psc":"64200"},
  {"name":"Brno-Bosonohy x)","psc":"64200"},
  {"name":"Brno-Chrlice (část) x)","psc":"64300"},
  {"name":"Chrlice (část)","psc":"64300"},
  {"name":"Brno-Obřany (část) x)","psc":"64400"},
  {"name":"Brno-Soběšice x)","psc":"64400"},
  {"name":"Brno-Útěchov x)","psc":"64400"},
  {"name":"Obřany (část)","psc":"64400"},
  {"name":"Soběšice","psc":"64400"},
  {"name":"Útěchov","psc":"64400"},
  {"name":"Pisárky (Brno-střed) (část)","psc":"64700"},
  {"name":"Babice nad Svitavou","psc":"66401"},
  {"name":"Bílovice nad Svitavou","psc":"66401"},
  {"name":"Kanice","psc":"66401"},
  {"name":"Řícmanice","psc":"66401"},
  {"name":"Ochoz u Brna","psc":"66402"},
  {"name":"Podolí","psc":"66403"},
  {"name":"Horákov","psc":"66404"},
  {"name":"Hostěnice","psc":"66404"},
  {"name":"Mokrá","psc":"66404"},
  {"name":"Jiříkovice (část)","psc":"66405"},
  {"name":"Tvarožná","psc":"66405"},
  {"name":"Velatice","psc":"66405"},
  {"name":"Kovalovice (část)","psc":"66406"},
  {"name":"Viničné Šumice","psc":"66406"},
  {"name":"Pozořice","psc":"66407"},
  {"name":"Sivice","psc":"66407"},
  {"name":"Blažovice","psc":"66408"},
  {"name":"Zbýšov","psc":"66411"},
  {"name":"Oslavany (část)","psc":"66412"},
  {"name":"Omice (část)","psc":"66417"},
  {"name":"Tetčice","psc":"66417"},
  {"name":"Čebín","psc":"66423"},
  {"name":"Drásov","psc":"66424"},
  {"name":"Česká","psc":"66431"},
  {"name":"Lelekovice","psc":"66431"},
  {"name":"Vranov","psc":"66432"},
  {"name":"Brno-Kníničky (část) x)","psc":"66434"},
  {"name":"Jinačovice","psc":"66434"},
  {"name":"Kníničky (část)","psc":"66434"},
  {"name":"Kuřim","psc":"66434"},
  {"name":"Moravské Knínice","psc":"66434"},
  {"name":"Rozdrojovice","psc":"66434"},
  {"name":"Omice (část)","psc":"66441"},
  {"name":"Popůvky","psc":"66441"},
  {"name":"Troubsko","psc":"66441"},
  {"name":"Brno-Chrlice (část) x)","psc":"66442"},
  {"name":"Chrlice (část)","psc":"66442"},
  {"name":"Modřice","psc":"66442"},
  {"name":"Hajany","psc":"66443"},
  {"name":"Želešice","psc":"66443"},
  {"name":"Ořechov","psc":"66444"},
  {"name":"Prštice","psc":"66446"},
  {"name":"Radostice (část)","psc":"66446"},
  {"name":"Silůvky","psc":"66446"},
  {"name":"Radostice (část)","psc":"66447"},
  {"name":"Střelice","psc":"66447"},
  {"name":"Moravany","psc":"66448"},
  {"name":"Nebovidy","psc":"66448"},
  {"name":"Ostopovice","psc":"66449"},
  {"name":"Bedřichovice","psc":"66451"},
  {"name":"Jiříkovice (část)","psc":"66451"},
  {"name":"Kobylnice","psc":"66451"},
  {"name":"Ponětovice","psc":"66451"},
  {"name":"Prace (část)","psc":"66451"},
  {"name":"Šlapanice","psc":"66451"},
  {"name":"Sokolnice","psc":"66452"},
  {"name":"Újezd u Brna","psc":"66453"},
  {"name":"Žatčany","psc":"66453"},
  {"name":"Nesvačilka","psc":"66454"},
  {"name":"Těšany","psc":"66454"},
  {"name":"Měnín (část)","psc":"66455"},
  {"name":"Moutnice","psc":"66455"},
  {"name":"Blučina","psc":"66456"},
  {"name":"Měnín (část)","psc":"66457"},
  {"name":"Otmarov","psc":"66457"},
  {"name":"Prace (část)","psc":"66458"},
  {"name":"Telnice","psc":"66459"},
  {"name":"Holasice","psc":"66461"},
  {"name":"Opatovice","psc":"66461"},
  {"name":"Popovice","psc":"66461"},
  {"name":"Rajhrad","psc":"66461"},
  {"name":"Rajhradice","psc":"66461"},
  {"name":"Rebešovice","psc":"66461"},
  {"name":"Hrušovany u Brna","psc":"66462"},
  {"name":"Ledce","psc":"66462"},
  {"name":"Přísnotice","psc":"66463"},
  {"name":"Unkovice","psc":"66463"},
  {"name":"Žabčice","psc":"66463"},
  {"name":"Dolní Kounice","psc":"66464"},
  {"name":"Kupařovice","psc":"66464"},
  {"name":"Malešovice (část)","psc":"66464"},
  {"name":"Mělčany","psc":"66464"},
  {"name":"Moravské Bránice","psc":"66464"},
  {"name":"Nové Bránice","psc":"66464"},
  {"name":"Odrovice","psc":"66464"},
  {"name":"Pravlov","psc":"66464"},
  {"name":"Trboušany","psc":"66464"},
  {"name":"Malešovice (část)","psc":"66465"},
  {"name":"Medlov","psc":"66466"},
  {"name":"Němčičky","psc":"66466"},
  {"name":"Bratčice","psc":"66467"},
  {"name":"Sobotovice","psc":"66467"},
  {"name":"Syrovice","psc":"66467"},
  {"name":"Braníškov","psc":"66471"},
  {"name":"Brno-Bystrc (část) x)","psc":"66471"},
  {"name":"Bystrc (část)","psc":"66471"},
  {"name":"Holasice","psc":"66471"},
  {"name":"Hvozdec","psc":"66471"},
  {"name":"Chudčice","psc":"66471"},
  {"name":"Javůrek (část)","psc":"66471"},
  {"name":"Lažánky","psc":"66471"},
  {"name":"Maršov","psc":"66471"},
  {"name":"Veverská Bítýška","psc":"66471"},
  {"name":"Deblín","psc":"66475"},
  {"name":"Ostrovačice (část)","psc":"66481"},
  {"name":"Veverské Knínice (část)","psc":"66481"},
  {"name":"Říčany","psc":"66482"},
  {"name":"Domašov","psc":"66483"},
  {"name":"Javůrek (část)","psc":"66483"},
  {"name":"Lesní Hluboké","psc":"66483"},
  {"name":"Litostrov","psc":"66483"},
  {"name":"Přibyslavice","psc":"66483"},
  {"name":"Radoškov","psc":"66483"},
  {"name":"Rosice (část)","psc":"66483"},
  {"name":"Rudka","psc":"66483"},
  {"name":"Říčky","psc":"66483"},
  {"name":"Babice u Rosic","psc":"66484"},
  {"name":"Lukovany","psc":"66484"},
  {"name":"Příbram na Moravě","psc":"66484"},
  {"name":"Rosice (část)","psc":"66484"},
  {"name":"Stanoviště","psc":"66484"},
  {"name":"Újezd u Rosic","psc":"66484"},
  {"name":"Vysoké Popovice","psc":"66484"},
  {"name":"Zakřany","psc":"66484"},
  {"name":"Zálesná Zhoř","psc":"66484"},
  {"name":"Zastávka","psc":"66484"},
  {"name":"Zbraslav","psc":"66484"},
  {"name":"Alexovice","psc":"66491"},
  {"name":"Biskoupky","psc":"66491"},
  {"name":"Budkovice","psc":"66491"},
  {"name":"Čučice","psc":"66491"},
  {"name":"Hlína","psc":"66491"},
  {"name":"Hrubšice","psc":"66491"},
  {"name":"Ivančice","psc":"66491"},
  {"name":"Ketkovice","psc":"66491"},
  {"name":"Kratochvilka","psc":"66491"},
  {"name":"Letkovice","psc":"66491"},
  {"name":"Němčice","psc":"66491"},
  {"name":"Neslovice","psc":"66491"},
  {"name":"Nová Ves","psc":"66491"},
  {"name":"Oslavany (část)","psc":"66491"},
  {"name":"Padochov","psc":"66491"},
  {"name":"Řeznovice","psc":"66491"},
  {"name":"Omice (část)","psc":"66501"},
  {"name":"Ostrovačice (část)","psc":"66501"},
  {"name":"Rosice (část)","psc":"66501"},
  {"name":"Veverské Knínice (část)","psc":"66501"},
  {"name":"Březina(dříve okr.Tišnov)","psc":"66601"},
  {"name":"Čížky","psc":"66601"},
  {"name":"Hajánky","psc":"66601"},
  {"name":"Hájek","psc":"66601"},
  {"name":"Heroltice","psc":"66601"},
  {"name":"Jamné","psc":"66601"},
  {"name":"Lomnička","psc":"66601"},
  {"name":"Nelepeč","psc":"66601"},
  {"name":"Pejškov","psc":"66601"},
  {"name":"Skalička (část)","psc":"66601"},
  {"name":"Svatoslav","psc":"66601"},
  {"name":"Šerkovice","psc":"66601"},
  {"name":"Tišnov (část)","psc":"66601"},
  {"name":"Úsuší","psc":"66601"},
  {"name":"Vohančice","psc":"66601"},
  {"name":"Všechovice (část)","psc":"66601"},
  {"name":"Závist","psc":"66601"},
  {"name":"Železné","psc":"66601"},
  {"name":"Žernůvka","psc":"66601"},
  {"name":"Předklášteří","psc":"66602"},
  {"name":"Štěpánovice","psc":"66602"},
  {"name":"Hradčany","psc":"66603"},
  {"name":"Malhostovice","psc":"66603"},
  {"name":"Nuzířov","psc":"66603"},
  {"name":"Sentice","psc":"66603"},
  {"name":"Skalička (část)","psc":"66603"},
  {"name":"Tišnov (část)","psc":"66603"},
  {"name":"Všechovice (část)","psc":"66603"},
  {"name":"Vojkovice","psc":"66701"},
  {"name":"Židlochovice","psc":"66701"},
  {"name":"Bezkov","psc":"66902"},
  {"name":"Dyjákovičky","psc":"66902"},
  {"name":"Dyje","psc":"66902"},
  {"name":"Hatě","psc":"66902"},
  {"name":"Havraníky","psc":"66902"},
  {"name":"Hnanice","psc":"66902"},
  {"name":"Hnízdo","psc":"66902"},
  {"name":"Chvalovice (část)","psc":"66902"},
  {"name":"Konice","psc":"66902"},
  {"name":"Kuchařovice","psc":"66902"},
  {"name":"Lukov","psc":"66902"},
  {"name":"Mašovice","psc":"66902"},
  {"name":"Milíčovice (část)","psc":"66902"},
  {"name":"Načeratice","psc":"66902"},
  {"name":"Podmolí","psc":"66902"},
  {"name":"Popice","psc":"66902"},
  {"name":"Suchohrdly","psc":"66902"},
  {"name":"Znojmo (část)","psc":"66902"},
  {"name":"Přímětice","psc":"66904"},
  {"name":"Citonice","psc":"67101"},
  {"name":"Čížov","psc":"67102"},
  {"name":"Horní Břečkov","psc":"67102"},
  {"name":"Chvalatice","psc":"67102"},
  {"name":"Lesná","psc":"67102"},
  {"name":"Onšov","psc":"67102"},
  {"name":"Štítary","psc":"67102"},
  {"name":"Šumná","psc":"67102"},
  {"name":"Vracovice","psc":"67102"},
  {"name":"Zálesí","psc":"67102"},
  {"name":"Vranov nad Dyjí","psc":"67103"},
  {"name":"Jazovice","psc":"67106"},
  {"name":"Lančov","psc":"67106"},
  {"name":"Nový Petřín","psc":"67106"},
  {"name":"Podhradí nad Dyjí","psc":"67106"},
  {"name":"Podmyče","psc":"67106"},
  {"name":"Stálky","psc":"67106"},
  {"name":"Starý Petřín","psc":"67106"},
  {"name":"Šafov","psc":"67106"},
  {"name":"Korolupy","psc":"67107"},
  {"name":"Lubnice","psc":"67107"},
  {"name":"Mešovice","psc":"67107"},
  {"name":"Oslnovice","psc":"67107"},
  {"name":"Uherčice","psc":"67107"},
  {"name":"Vratěnín","psc":"67107"},
  {"name":"Vysočany","psc":"67107"},
  {"name":"Zblovice","psc":"67107"},
  {"name":"Bítov","psc":"67110"},
  {"name":"Šatov","psc":"67122"},
  {"name":"Chvalovice (část)","psc":"67123"},
  {"name":"Vrbovec","psc":"67124"},
  {"name":"Hodonice","psc":"67125"},
  {"name":"Tasovice","psc":"67125"},
  {"name":"Dyjákovice","psc":"67126"},
  {"name":"Hrádek (část)","psc":"67127"},
  {"name":"Derflice","psc":"67128"},
  {"name":"Hrádek (část)","psc":"67128"},
  {"name":"Jaroslavice","psc":"67128"},
  {"name":"Krhovice","psc":"67128"},
  {"name":"Křídlůvky","psc":"67128"},
  {"name":"Oleksovičky","psc":"67128"},
  {"name":"Slup","psc":"67128"},
  {"name":"Valtrovice","psc":"67128"},
  {"name":"Velký Karlov","psc":"67128"},
  {"name":"Micmanice","psc":"67129"},
  {"name":"Strachotice","psc":"67129"},
  {"name":"Únanov","psc":"67131"},
  {"name":"Plaveč (část)","psc":"67132"},
  {"name":"Mikulovice","psc":"67133"},
  {"name":"Horní Dunajovice (část)","psc":"67134"},
  {"name":"Tvořihráz","psc":"67134"},
  {"name":"Výrovice","psc":"67134"},
  {"name":"Želetice","psc":"67134"},
  {"name":"Žerotice","psc":"67134"},
  {"name":"Višňové","psc":"67138"},
  {"name":"Běhařovice","psc":"67139"},
  {"name":"Dobronice","psc":"67140"},
  {"name":"Horní Kounice","psc":"67140"},
  {"name":"Křepice","psc":"67140"},
  {"name":"Medlice","psc":"67140"},
  {"name":"Přeskače","psc":"67140"},
  {"name":"Ratišovice","psc":"67140"},
  {"name":"Stupešice","psc":"67140"},
  {"name":"Tavíkovice","psc":"67140"},
  {"name":"Újezd","psc":"67140"},
  {"name":"Vémyslice","psc":"67142"},
  {"name":"Kasárna","psc":"67151"},
  {"name":"Kravsko","psc":"67151"},
  {"name":"Milíčovice (část)","psc":"67151"},
  {"name":"Mramotice","psc":"67151"},
  {"name":"Olbramkostel","psc":"67151"},
  {"name":"Plenkovice","psc":"67151"},
  {"name":"Vranovská Ves","psc":"67151"},
  {"name":"Žerůtky","psc":"67151"},
  {"name":"Hluboké Mašůvky","psc":"67152"},
  {"name":"Plaveč (část)","psc":"67152"},
  {"name":"Bojanovice","psc":"67153"},
  {"name":"Černín","psc":"67153"},
  {"name":"Jevišovice","psc":"67153"},
  {"name":"Němčičky","psc":"67153"},
  {"name":"Rozkoš","psc":"67153"},
  {"name":"Rudlice","psc":"67153"},
  {"name":"Slatina","psc":"67153"},
  {"name":"Střelice","psc":"67153"},
  {"name":"Vevčice","psc":"67153"},
  {"name":"Blanné","psc":"67154"},
  {"name":"Boskovštejn","psc":"67154"},
  {"name":"Ctidružice","psc":"67154"},
  {"name":"Hostim","psc":"67154"},
  {"name":"Jiřice u Moravských Budějovic","psc":"67154"},
  {"name":"Prokopov","psc":"67154"},
  {"name":"Blížkovice","psc":"67155"},
  {"name":"Grešlové Mýto","psc":"67156"},
  {"name":"Pavlice","psc":"67156"},
  {"name":"Bantice","psc":"67161"},
  {"name":"Horní Dunajovice (část)","psc":"67161"},
  {"name":"Kyjovice","psc":"67161"},
  {"name":"Práče","psc":"67161"},
  {"name":"Prosiměřice","psc":"67161"},
  {"name":"Stošíkovice na Louce","psc":"67161"},
  {"name":"Těšetice","psc":"67161"},
  {"name":"Vítonice","psc":"67161"},
  {"name":"Oleksovice","psc":"67162"},
  {"name":"Lechovice","psc":"67163"},
  {"name":"Božice","psc":"67164"},
  {"name":"Šanov (část)","psc":"67164"},
  {"name":"Břežany","psc":"67165"},
  {"name":"Hrušovany nad Jevišovkou","psc":"67167"},
  {"name":"Šanov (část)","psc":"67167"},
  {"name":"Hevlín (část)","psc":"67168"},
  {"name":"Hrabětice","psc":"67168"},
  {"name":"Šanov (část)","psc":"67168"},
  {"name":"Hevlín (část)","psc":"67169"},
  {"name":"Džbánice","psc":"67171"},
  {"name":"Hostěradice","psc":"67171"},
  {"name":"Chlupice","psc":"67171"},
  {"name":"Míšovice","psc":"67171"},
  {"name":"Morašice","psc":"67171"},
  {"name":"Skalice","psc":"67171"},
  {"name":"Trstěnice","psc":"67171"},
  {"name":"Kašenec","psc":"67172"},
  {"name":"Miroslav","psc":"67172"},
  {"name":"Miroslavské Knínice","psc":"67172"},
  {"name":"Suchohrdly u Miroslavi","psc":"67172"},
  {"name":"Čermákovice","psc":"67173"},
  {"name":"Dolní Dubňany","psc":"67173"},
  {"name":"Horní Dubňany","psc":"67173"},
  {"name":"Rešice","psc":"67173"},
  {"name":"Tulešice","psc":"67173"},
  {"name":"Jezeřany-Maršovice","psc":"67175"},
  {"name":"Loděnice","psc":"67175"},
  {"name":"Olbramovice (část)","psc":"67175"},
  {"name":"Rakšice (část)","psc":"67175"},
  {"name":"Šumice","psc":"67175"},
  {"name":"Vedrovice","psc":"67175"},
  {"name":"Bohutice","psc":"67176"},
  {"name":"Kubšice","psc":"67176"},
  {"name":"Našiměřice","psc":"67176"},
  {"name":"Olbramovice (část)","psc":"67176"},
  {"name":"Branišovice","psc":"67177"},
  {"name":"Borotice","psc":"67178"},
  {"name":"Čejkovice","psc":"67178"},
  {"name":"Damnice","psc":"67178"},
  {"name":"Dolenice","psc":"67178"},
  {"name":"Jiřice u Miroslavi","psc":"67178"},
  {"name":"Litobratřice","psc":"67178"},
  {"name":"Mackovice","psc":"67178"},
  {"name":"Pravice","psc":"67178"},
  {"name":"Trnové Pole","psc":"67178"},
  {"name":"Troskotovice","psc":"67178"},
  {"name":"Nový Šaldorf","psc":"67181"},
  {"name":"Oblekovice","psc":"67181"},
  {"name":"Sedlešovice","psc":"67181"},
  {"name":"Znojmo (část)","psc":"67181"},
  {"name":"Dobšice","psc":"67182"},
  {"name":"Znojmo (část)","psc":"67182"},
  {"name":"Dobelice","psc":"67201"},
  {"name":"Dobřínsko","psc":"67201"},
  {"name":"Jamolice","psc":"67201"},
  {"name":"Kadov","psc":"67201"},
  {"name":"Lesonice","psc":"67201"},
  {"name":"Moravský Krumlov","psc":"67201"},
  {"name":"Petrovice","psc":"67201"},
  {"name":"Polánka","psc":"67201"},
  {"name":"Rakšice (část)","psc":"67201"},
  {"name":"Rokytná","psc":"67201"},
  {"name":"Rybníky","psc":"67201"},
  {"name":"Borovina (část)","psc":"67401"},
  {"name":"Budíkovice","psc":"67401"},
  {"name":"Horka-Domky (část)","psc":"67401"},
  {"name":"Jejkov","psc":"67401"},
  {"name":"Kožichovice","psc":"67401"},
  {"name":"Nové Dvory","psc":"67401"},
  {"name":"Nové Město","psc":"67401"},
  {"name":"Okřešice","psc":"67401"},
  {"name":"Pocoucov","psc":"67401"},
  {"name":"Podklášteří","psc":"67401"},
  {"name":"Ptáčov","psc":"67401"},
  {"name":"Račerovice","psc":"67401"},
  {"name":"Řípov","psc":"67401"},
  {"name":"Slavice","psc":"67401"},
  {"name":"Sokolí","psc":"67401"},
  {"name":"Stařeč (část)","psc":"67401"},
  {"name":"Stařečka","psc":"67401"},
  {"name":"Střítež","psc":"67401"},
  {"name":"Trnava","psc":"67401"},
  {"name":"Týn","psc":"67401"},
  {"name":"Vnitřní Město","psc":"67401"},
  {"name":"Výčapy","psc":"67401"},
  {"name":"Zámostí","psc":"67401"},
  {"name":"Borovina (část)","psc":"67402"},
  {"name":"Horka-Domky (část)","psc":"67403"},
  {"name":"Číměř","psc":"67501"},
  {"name":"Hostákov","psc":"67501"},
  {"name":"Okrašovice","psc":"67501"},
  {"name":"Pozďátky","psc":"67501"},
  {"name":"Slavičky","psc":"67501"},
  {"name":"Smrk","psc":"67501"},
  {"name":"Střížov","psc":"67501"},
  {"name":"Vladislav","psc":"67501"},
  {"name":"Koněšín","psc":"67502"},
  {"name":"Kozlany","psc":"67502"},
  {"name":"Okarec","psc":"67502"},
  {"name":"Studenec","psc":"67502"},
  {"name":"Třesov","psc":"67502"},
  {"name":"Budišov","psc":"67503"},
  {"name":"Hodov (část)","psc":"67503"},
  {"name":"Kamenice (část)","psc":"67503"},
  {"name":"Kamenná","psc":"67503"},
  {"name":"Klementice","psc":"67503"},
  {"name":"Kojatín","psc":"67503"},
  {"name":"Mihoukovice","psc":"67503"},
  {"name":"Nárameč","psc":"67503"},
  {"name":"Pozďatín","psc":"67503"},
  {"name":"Studnice","psc":"67503"},
  {"name":"Valdíkov","psc":"67503"},
  {"name":"Hodov (část)","psc":"67504"},
  {"name":"Batouchovice","psc":"67505"},
  {"name":"Bochovice","psc":"67505"},
  {"name":"Horní Heřmanice","psc":"67505"},
  {"name":"Hroznatín","psc":"67505"},
  {"name":"Nový Telečkov","psc":"67505"},
  {"name":"Oslavička","psc":"67505"},
  {"name":"Přeckov","psc":"67505"},
  {"name":"Rohy","psc":"67505"},
  {"name":"Rudíkov","psc":"67505"},
  {"name":"Vlčatín","psc":"67505"},
  {"name":"Benetice","psc":"67506"},
  {"name":"Čechtín","psc":"67507"},
  {"name":"Červená Lhota","psc":"67507"},
  {"name":"Číhalín","psc":"67507"},
  {"name":"Horní Smrčné","psc":"67507"},
  {"name":"Horní Vilémovice","psc":"67507"},
  {"name":"Chlum (část)","psc":"67507"},
  {"name":"Radošov","psc":"67507"},
  {"name":"Svatoslav","psc":"67507"},
  {"name":"Věstoňovice","psc":"67507"},
  {"name":"Kouty","psc":"67508"},
  {"name":"Bransouze","psc":"67521"},
  {"name":"Číchov","psc":"67521"},
  {"name":"Heraltice","psc":"67521"},
  {"name":"Hvězdoňovice","psc":"67521"},
  {"name":"Chlum (část)","psc":"67521"},
  {"name":"Kněžice (část)","psc":"67521"},
  {"name":"Krahulov","psc":"67521"},
  {"name":"Nová Brtnice","psc":"67521"},
  {"name":"Nová Ves","psc":"67521"},
  {"name":"Okříšky","psc":"67521"},
  {"name":"Petrovice","psc":"67521"},
  {"name":"Pokojovice","psc":"67521"},
  {"name":"Přibyslavice","psc":"67521"},
  {"name":"Radonín","psc":"67521"},
  {"name":"Rychlov","psc":"67521"},
  {"name":"Zašovice","psc":"67521"},
  {"name":"Čáslavice (část)","psc":"67522"},
  {"name":"Čechočovice","psc":"67522"},
  {"name":"Horní Újezd","psc":"67522"},
  {"name":"Chlístov","psc":"67522"},
  {"name":"Kracovice","psc":"67522"},
  {"name":"Loukovice","psc":"67522"},
  {"name":"Markvartice","psc":"67522"},
  {"name":"Mastník","psc":"67522"},
  {"name":"Mikulovice","psc":"67522"},
  {"name":"Rokytnice nad Rokytnou (část)","psc":"67522"},
  {"name":"Římov","psc":"67522"},
  {"name":"Stařeč (část)","psc":"67522"},
  {"name":"Čáslavice (část)","psc":"67523"},
  {"name":"Kojetice","psc":"67523"},
  {"name":"Čáslavice (část)","psc":"67524"},
  {"name":"Rokytnice nad Rokytnou (část)","psc":"67525"},
  {"name":"Bítovánky","psc":"67526"},
  {"name":"Cidlina (část)","psc":"67526"},
  {"name":"Horky","psc":"67526"},
  {"name":"Jindřichovice","psc":"67526"},
  {"name":"Komárovice","psc":"67526"},
  {"name":"Lesná","psc":"67526"},
  {"name":"Meziříčko","psc":"67526"},
  {"name":"Šašovice","psc":"67526"},
  {"name":"Štěpkov","psc":"67526"},
  {"name":"Želetava","psc":"67526"},
  {"name":"Brtnička","psc":"67527"},
  {"name":"Hory","psc":"67527"},
  {"name":"Hrutov","psc":"67527"},
  {"name":"Předín","psc":"67527"},
  {"name":"Štěměchy","psc":"67527"},
  {"name":"Opatov","psc":"67528"},
  {"name":"Brodce","psc":"67529"},
  {"name":"Kněžice (část)","psc":"67529"},
  {"name":"Víska","psc":"67529"},
  {"name":"Chotěbudice","psc":"67531"},
  {"name":"Jemnice","psc":"67531"},
  {"name":"Lhotice","psc":"67531"},
  {"name":"Lomy","psc":"67531"},
  {"name":"Louka","psc":"67531"},
  {"name":"Lovčovice","psc":"67531"},
  {"name":"Menhartice","psc":"67531"},
  {"name":"Mladoňovice (část)","psc":"67531"},
  {"name":"Pálovice","psc":"67531"},
  {"name":"Panenská","psc":"67531"},
  {"name":"Slavíkovice","psc":"67531"},
  {"name":"Bačkovice","psc":"67532"},
  {"name":"Hornice","psc":"67532"},
  {"name":"Jiratice","psc":"67532"},
  {"name":"Kdousov","psc":"67532"},
  {"name":"Kojatice (část)","psc":"67532"},
  {"name":"Kostníky (část)","psc":"67532"},
  {"name":"Mladoňovice (část)","psc":"67532"},
  {"name":"Oponešice","psc":"67532"},
  {"name":"Rácovice","psc":"67532"},
  {"name":"Radotice","psc":"67532"},
  {"name":"Třebelovice","psc":"67532"},
  {"name":"Velký Újezd","psc":"67532"},
  {"name":"Dešov","psc":"67533"},
  {"name":"Kostníky (část)","psc":"67534"},
  {"name":"Police","psc":"67534"},
  {"name":"Dědice","psc":"67541"},
  {"name":"Jackov","psc":"67541"},
  {"name":"Kojatice (část)","psc":"67541"},
  {"name":"Krnčice","psc":"67541"},
  {"name":"Láz","psc":"67541"},
  {"name":"Nimpšov","psc":"67541"},
  {"name":"Nové Syrovice","psc":"67541"},
  {"name":"Budkov","psc":"67542"},
  {"name":"Domamil","psc":"67543"},
  {"name":"Babice","psc":"67544"},
  {"name":"Bolíkovice","psc":"67544"},
  {"name":"Cidlina (část)","psc":"67544"},
  {"name":"Horní Lažany","psc":"67544"},
  {"name":"Jakubov u Moravských Budějovic","psc":"67544"},
  {"name":"Lesonice","psc":"67544"},
  {"name":"Litohoř","psc":"67544"},
  {"name":"Martínkov","psc":"67544"},
  {"name":"Vranín","psc":"67544"},
  {"name":"Šebkovice","psc":"67545"},
  {"name":"Dukovany (část)","psc":"67550"},
  {"name":"Blatnice","psc":"67551"},
  {"name":"Bohušice","psc":"67551"},
  {"name":"Boňov","psc":"67551"},
  {"name":"Dolní Lažany","psc":"67551"},
  {"name":"Jaroměřice nad Rokytnou","psc":"67551"},
  {"name":"Lesůňky","psc":"67551"},
  {"name":"Ohrazenice","psc":"67551"},
  {"name":"Popovice","psc":"67551"},
  {"name":"Příložany","psc":"67551"},
  {"name":"Příštpo","psc":"67551"},
  {"name":"Ratibořice","psc":"67551"},
  {"name":"Štěpánovice","psc":"67551"},
  {"name":"Vacenovice","psc":"67551"},
  {"name":"Dolní Vilémovice","psc":"67552"},
  {"name":"Chroustov","psc":"67552"},
  {"name":"Klučov","psc":"67552"},
  {"name":"Lipník","psc":"67552"},
  {"name":"Myslibořice (část)","psc":"67552"},
  {"name":"Ostašov","psc":"67552"},
  {"name":"Petrůvky","psc":"67552"},
  {"name":"Plešice","psc":"67552"},
  {"name":"Třebenice","psc":"67552"},
  {"name":"Zárubice","psc":"67552"},
  {"name":"Valeč","psc":"67553"},
  {"name":"Dalešice (část)","psc":"67554"},
  {"name":"Bačice","psc":"67555"},
  {"name":"Dalešice (část)","psc":"67555"},
  {"name":"Hrotovice","psc":"67555"},
  {"name":"Krhov","psc":"67555"},
  {"name":"Odunec","psc":"67555"},
  {"name":"Račice","psc":"67555"},
  {"name":"Slavětice","psc":"67555"},
  {"name":"Stropešín","psc":"67555"},
  {"name":"Udeřice","psc":"67555"},
  {"name":"Dukovany (část)","psc":"67556"},
  {"name":"Litovany","psc":"67557"},
  {"name":"Přešovice","psc":"67557"},
  {"name":"Pulkov","psc":"67557"},
  {"name":"Rouchovany","psc":"67557"},
  {"name":"Šemíkovice","psc":"67557"},
  {"name":"Biskupice","psc":"67558"},
  {"name":"Radkovice u Hrotovic","psc":"67559"},
  {"name":"Myslibořice (část)","psc":"67560"},
  {"name":"Častotice","psc":"67571"},
  {"name":"Hluboké","psc":"67571"},
  {"name":"Jasenice","psc":"67571"},
  {"name":"Jedov","psc":"67571"},
  {"name":"Jinošov","psc":"67571"},
  {"name":"Kralice nad Oslavou (část)","psc":"67571"},
  {"name":"Krokočín","psc":"67571"},
  {"name":"Naloučany","psc":"67571"},
  {"name":"Náměšť nad Oslavou","psc":"67571"},
  {"name":"Ocmanice","psc":"67571"},
  {"name":"Otradice","psc":"67571"},
  {"name":"Pucov","psc":"67571"},
  {"name":"Pyšel","psc":"67571"},
  {"name":"Sedlec","psc":"67571"},
  {"name":"Vaneč","psc":"67571"},
  {"name":"Vícenice u Náměště nad Oslavou","psc":"67571"},
  {"name":"Zahrádka","psc":"67571"},
  {"name":"Zňátky","psc":"67571"},
  {"name":"Horní Lhotice","psc":"67573"},
  {"name":"Kralice nad Oslavou (část)","psc":"67573"},
  {"name":"Lesní Jakubov","psc":"67573"},
  {"name":"Rapotice","psc":"67573"},
  {"name":"Sudice","psc":"67573"},
  {"name":"Březník","psc":"67574"},
  {"name":"Kladeruby nad Oslavou","psc":"67575"},
  {"name":"Kuroslepy","psc":"67575"},
  {"name":"Lhánice","psc":"67575"},
  {"name":"Mohelno","psc":"67575"},
  {"name":"Popůvky","psc":"67575"},
  {"name":"Senorady","psc":"67575"},
  {"name":"Hartvíkovice","psc":"67576"},
  {"name":"Kramolín","psc":"67577"},
  {"name":"Čikov","psc":"67578"},
  {"name":"Tasov","psc":"67579"},
  {"name":"Častohostice","psc":"67602"},
  {"name":"Lažínky","psc":"67602"},
  {"name":"Lukov","psc":"67602"},
  {"name":"Moravské Budějovice","psc":"67602"},
  {"name":"Vesce","psc":"67602"},
  {"name":"Vícenice","psc":"67602"},
  {"name":"Zvěrkovice","psc":"67602"},
  {"name":"Blansko","psc":"67801"},
  {"name":"Dolní Lhota","psc":"67801"},
  {"name":"Horní Lhota","psc":"67801"},
  {"name":"Hořice","psc":"67801"},
  {"name":"Klepačov (část)","psc":"67801"},
  {"name":"Lažánky","psc":"67801"},
  {"name":"Obůrka","psc":"67801"},
  {"name":"Olešná","psc":"67801"},
  {"name":"Svatá Kateřina","psc":"67801"},
  {"name":"Těchov","psc":"67801"},
  {"name":"Jabloňany","psc":"67901"},
  {"name":"Krhov","psc":"67901"},
  {"name":"Lhota Rapotina","psc":"67901"},
  {"name":"Lysice (část)","psc":"67901"},
  {"name":"Mladkov","psc":"67901"},
  {"name":"Obora","psc":"67901"},
  {"name":"Skalice nad Svitavou","psc":"67901"},
  {"name":"Voděrady","psc":"67901"},
  {"name":"Holešín (část)","psc":"67902"},
  {"name":"Jestřebí","psc":"67902"},
  {"name":"Karolín","psc":"67902"},
  {"name":"Kuničky","psc":"67902"},
  {"name":"Petrovice","psc":"67902"},
  {"name":"Rájec","psc":"67902"},
  {"name":"Ráječko","psc":"67902"},
  {"name":"Spešov","psc":"67902"},
  {"name":"Žďár","psc":"67902"},
  {"name":"Klepačov (část)","psc":"67903"},
  {"name":"Olomučany (část)","psc":"67903"},
  {"name":"Adamov","psc":"67904"},
  {"name":"Habrůvka (část)","psc":"67904"},
  {"name":"Olomučany (část)","psc":"67904"},
  {"name":"Březina","psc":"67905"},
  {"name":"Bukovina","psc":"67905"},
  {"name":"Bukovinka","psc":"67905"},
  {"name":"Habrůvka (část)","psc":"67905"},
  {"name":"Křtiny","psc":"67905"},
  {"name":"Jedovnice","psc":"67906"},
  {"name":"Kotvrdovice (část)","psc":"67906"},
  {"name":"Krasová","psc":"67906"},
  {"name":"Kulířov","psc":"67906"},
  {"name":"Marianín","psc":"67906"},
  {"name":"Rudice","psc":"67906"},
  {"name":"Senetářov","psc":"67906"},
  {"name":"Vilémovice","psc":"67906"},
  {"name":"Kotvrdovice (část)","psc":"67907"},
  {"name":"Doubravice nad Svitavou","psc":"67911"},
  {"name":"Holešín (část)","psc":"67911"},
  {"name":"Holštejn","psc":"67913"},
  {"name":"Housko","psc":"67913"},
  {"name":"Molenburk","psc":"67913"},
  {"name":"Sloup","psc":"67913"},
  {"name":"Suchdol","psc":"67913"},
  {"name":"Šošůvka","psc":"67913"},
  {"name":"Vavřinec","psc":"67913"},
  {"name":"Veselice","psc":"67913"},
  {"name":"Ostrov u Macochy","psc":"67914"},
  {"name":"Lipovec","psc":"67915"},
  {"name":"Bořitov","psc":"67921"},
  {"name":"Brťov u Černé Hory","psc":"67921"},
  {"name":"Černá Hora","psc":"67921"},
  {"name":"Jeneč","psc":"67921"},
  {"name":"Lubě","psc":"67921"},
  {"name":"Malá Lhota","psc":"67921"},
  {"name":"Žernovník","psc":"67921"},
  {"name":"Lažany","psc":"67922"},
  {"name":"Lipůvka","psc":"67922"},
  {"name":"Milonice","psc":"67922"},
  {"name":"Svinošice","psc":"67922"},
  {"name":"Šebrov","psc":"67922"},
  {"name":"Újezd u Černé Hory","psc":"67922"},
  {"name":"Závist","psc":"67922"},
  {"name":"Běleč","psc":"67923"},
  {"name":"Brumov","psc":"67923"},
  {"name":"Brusná","psc":"67923"},
  {"name":"Bukovice","psc":"67923"},
  {"name":"Hluboké Dvory","psc":"67923"},
  {"name":"Křeptov","psc":"67923"},
  {"name":"Lomnice","psc":"67923"},
  {"name":"Ochoz u Tišnova","psc":"67923"},
  {"name":"Osiky","psc":"67923"},
  {"name":"Rašov","psc":"67923"},
  {"name":"Rohozec","psc":"67923"},
  {"name":"Řepka","psc":"67923"},
  {"name":"Strhaře","psc":"67923"},
  {"name":"Synalov","psc":"67923"},
  {"name":"Veselí","psc":"67923"},
  {"name":"Zhoř","psc":"67923"},
  {"name":"Žleby","psc":"67923"},
  {"name":"Unín","psc":"67924"},
  {"name":"Sebranice","psc":"67931"},
  {"name":"Svitávka (část)","psc":"67931"},
  {"name":"Sasina","psc":"67932"},
  {"name":"Svitávka (část)","psc":"67932"},
  {"name":"Vísky","psc":"67933"},
  {"name":"Knínice u Boskovic (část)","psc":"67934"},
  {"name":"Šebetov (část)","psc":"67935"},
  {"name":"Vanovice","psc":"67936"},
  {"name":"Borotín","psc":"67937"},
  {"name":"Cetkovice","psc":"67938"},
  {"name":"Úsobrno","psc":"67939"},
  {"name":"Ludíkov (část)","psc":"67951"},
  {"name":"Němčice","psc":"67951"},
  {"name":"Žďárná","psc":"67952"},
  {"name":"Benešov","psc":"67953"},
  {"name":"Babolky","psc":"67961"},
  {"name":"Bezděčí","psc":"67961"},
  {"name":"Deštná","psc":"67961"},
  {"name":"Dolní Smržov","psc":"67961"},
  {"name":"Drvalovice","psc":"67961"},
  {"name":"Horní Smržov","psc":"67961"},
  {"name":"Chlum","psc":"67961"},
  {"name":"Jasinov (část)","psc":"67961"},
  {"name":"Kladoruby","psc":"67961"},
  {"name":"Klevetov","psc":"67961"},
  {"name":"Kněževísko","psc":"67961"},
  {"name":"Kochov","psc":"67961"},
  {"name":"Letovice","psc":"67961"},
  {"name":"Lhota","psc":"67961"},
  {"name":"Meziříčko","psc":"67961"},
  {"name":"Míchov","psc":"67961"},
  {"name":"Novičí","psc":"67961"},
  {"name":"Nýrov (část)","psc":"67961"},
  {"name":"Pamětice","psc":"67961"},
  {"name":"Podolí","psc":"67961"},
  {"name":"Roubanina","psc":"67961"},
  {"name":"Rumberk","psc":"67961"},
  {"name":"Skrchov","psc":"67961"},
  {"name":"Skřib","psc":"67961"},
  {"name":"Slatinka","psc":"67961"},
  {"name":"Stvolová","psc":"67961"},
  {"name":"Třebětín","psc":"67961"},
  {"name":"Vlkov","psc":"67961"},
  {"name":"Zábludov","psc":"67961"},
  {"name":"Zboněk","psc":"67961"},
  {"name":"Dolní Poříčí","psc":"67962"},
  {"name":"Horní Poříčí","psc":"67962"},
  {"name":"Jasinov (část)","psc":"67962"},
  {"name":"Křetín","psc":"67962"},
  {"name":"Lazinov","psc":"67962"},
  {"name":"Petrov","psc":"67962"},
  {"name":"Prostřední Poříčí","psc":"67962"},
  {"name":"Sulíkov","psc":"67962"},
  {"name":"Vranová","psc":"67962"},
  {"name":"Vřesice","psc":"67962"},
  {"name":"Brťov u Velkých Opatovic","psc":"67963"},
  {"name":"Korbelova Lhota","psc":"67963"},
  {"name":"Malá Roudka","psc":"67963"},
  {"name":"Skočova Lhota","psc":"67963"},
  {"name":"Svárov","psc":"67963"},
  {"name":"Světlá","psc":"67963"},
  {"name":"Šebetov (část)","psc":"67963"},
  {"name":"Uhřice","psc":"67963"},
  {"name":"Velká Roudka","psc":"67963"},
  {"name":"Velké Opatovice","psc":"67963"},
  {"name":"Bedřichov","psc":"67971"},
  {"name":"Býkovice","psc":"67971"},
  {"name":"Černovice (část)","psc":"67971"},
  {"name":"Dlouhá Lhota","psc":"67971"},
  {"name":"Hodonín","psc":"67971"},
  {"name":"Kozárov","psc":"67971"},
  {"name":"Kunčina Ves","psc":"67971"},
  {"name":"Kunice","psc":"67971"},
  {"name":"Lačnov","psc":"67971"},
  {"name":"Lhota u Lysic","psc":"67971"},
  {"name":"Lysice (část)","psc":"67971"},
  {"name":"Štěchov","psc":"67971"},
  {"name":"Tasovice","psc":"67971"},
  {"name":"Žerůtky","psc":"67971"},
  {"name":"Hluboké u Kunštátu","psc":"67972"},
  {"name":"Kunštát","psc":"67972"},
  {"name":"Makov","psc":"67972"},
  {"name":"Nýrov (část)","psc":"67972"},
  {"name":"Rudka","psc":"67972"},
  {"name":"Sychotín","psc":"67972"},
  {"name":"Touboř","psc":"67972"},
  {"name":"Újezd","psc":"67972"},
  {"name":"Zbraslavec","psc":"67972"},
  {"name":"Rozseč nad Kunštátem","psc":"67973"},
  {"name":"Crhov","psc":"67974"},
  {"name":"Jobova Lhota","psc":"67974"},
  {"name":"Kněževes","psc":"67974"},
  {"name":"Křtěnov","psc":"67974"},
  {"name":"Lhota u Olešnice","psc":"67974"},
  {"name":"Louka (část)","psc":"67974"},
  {"name":"Olešnice","psc":"67974"},
  {"name":"Rozsíčka","psc":"67974"},
  {"name":"Ústup","psc":"67974"},
  {"name":"Veselka","psc":"67974"},
  {"name":"Černovice (část)","psc":"67975"},
  {"name":"Drnovice","psc":"67976"},
  {"name":"Bačov","psc":"68001"},
  {"name":"Boskovice","psc":"68001"},
  {"name":"Hrádkov","psc":"68001"},
  {"name":"Chrudichromy","psc":"68001"},
  {"name":"Knínice u Boskovic (část)","psc":"68001"},
  {"name":"Kořenec","psc":"68001"},
  {"name":"Ludíkov (část)","psc":"68001"},
  {"name":"Okrouhlá","psc":"68001"},
  {"name":"Sudice","psc":"68001"},
  {"name":"Suchý","psc":"68001"},
  {"name":"Újezd u Boskovic","psc":"68001"},
  {"name":"Valchov","psc":"68001"},
  {"name":"Vážany","psc":"68001"},
  {"name":"Velenov","psc":"68001"},
  {"name":"Vratíkov","psc":"68001"},
  {"name":"Boškůvky","psc":"68201"},
  {"name":"Brňany","psc":"68201"},
  {"name":"Dědice","psc":"68201"},
  {"name":"Hamiltony","psc":"68201"},
  {"name":"Heroltice","psc":"68201"},
  {"name":"Hlubočany","psc":"68201"},
  {"name":"Hoštice","psc":"68201"},
  {"name":"Hoštice-Heroltice x)","psc":"68201"},
  {"name":"Křečkovice","psc":"68201"},
  {"name":"Křižanovice u Vyškova","psc":"68201"},
  {"name":"Kučerov","psc":"68201"},
  {"name":"Lhota","psc":"68201"},
  {"name":"Lysovice","psc":"68201"},
  {"name":"Medlovice","psc":"68201"},
  {"name":"Moravské Málkovice","psc":"68201"},
  {"name":"Moravské Prusy","psc":"68201"},
  {"name":"Nosálovice","psc":"68201"},
  {"name":"Nouzka","psc":"68201"},
  {"name":"Opatovice","psc":"68201"},
  {"name":"Orlovice","psc":"68201"},
  {"name":"Pařezovice","psc":"68201"},
  {"name":"Pazderna","psc":"68201"},
  {"name":"Rostěnice","psc":"68201"},
  {"name":"Rybníček","psc":"68201"},
  {"name":"Rychtářov","psc":"68201"},
  {"name":"Terešov","psc":"68201"},
  {"name":"Topolany","psc":"68201"},
  {"name":"Vážany","psc":"68201"},
  {"name":"Vyškov-Město","psc":"68201"},
  {"name":"Vyškov-Předměstí","psc":"68201"},
  {"name":"Zouvalka","psc":"68201"},
  {"name":"Zvonovice","psc":"68201"},
  {"name":"Čechyně","psc":"68301"},
  {"name":"Dražovice","psc":"68301"},
  {"name":"Habrovany","psc":"68301"},
  {"name":"Komořany","psc":"68301"},
  {"name":"Kovalovice (část)","psc":"68301"},
  {"name":"Královopolské Vážany","psc":"68301"},
  {"name":"Kroužek","psc":"68301"},
  {"name":"Olšany","psc":"68301"},
  {"name":"Podbřežice","psc":"68301"},
  {"name":"Rousínov","psc":"68301"},
  {"name":"Rousínovec","psc":"68301"},
  {"name":"Slavíkovice","psc":"68301"},
  {"name":"Tučapy","psc":"68301"},
  {"name":"Velešovice","psc":"68301"},
  {"name":"Vítovice","psc":"68301"},
  {"name":"Luleč","psc":"68303"},
  {"name":"Nemojany","psc":"68303"},
  {"name":"Drnovice","psc":"68304"},
  {"name":"Ježkovice","psc":"68304"},
  {"name":"Krásensko","psc":"68304"},
  {"name":"Podomí","psc":"68304"},
  {"name":"Ruprechtov","psc":"68304"},
  {"name":"Pístovice","psc":"68305"},
  {"name":"Račice","psc":"68305"},
  {"name":"Březina","psc":"68308"},
  {"name":"Nové Sady","psc":"68308"},
  {"name":"Odrůvky","psc":"68308"},
  {"name":"Studnice","psc":"68308"},
  {"name":"Drysice","psc":"68321"},
  {"name":"Podivice","psc":"68321"},
  {"name":"Pustiměř","psc":"68321"},
  {"name":"Pustiměřské Prusy","psc":"68321"},
  {"name":"Radslavice","psc":"68321"},
  {"name":"Radslavičky","psc":"68321"},
  {"name":"Zelená Hora","psc":"68321"},
  {"name":"Dětkovice","psc":"68323"},
  {"name":"Chvalkovice na Hané","psc":"68323"},
  {"name":"Ivanovice na Hané","psc":"68323"},
  {"name":"Švábenice","psc":"68323"},
  {"name":"Brankovice","psc":"68333"},
  {"name":"Dobročkovice","psc":"68333"},
  {"name":"Kožušice","psc":"68333"},
  {"name":"Letošov","psc":"68333"},
  {"name":"Malínky","psc":"68333"},
  {"name":"Milonice","psc":"68333"},
  {"name":"Mouchnice","psc":"68333"},
  {"name":"Nemochovice","psc":"68333"},
  {"name":"Nemotice","psc":"68333"},
  {"name":"Nesovice","psc":"68333"},
  {"name":"Snovídky","psc":"68333"},
  {"name":"Uhřice","psc":"68333"},
  {"name":"Letonice","psc":"68335"},
  {"name":"Bohdalice","psc":"68341"},
  {"name":"Chvalkovice","psc":"68341"},
  {"name":"Kozlany","psc":"68341"},
  {"name":"Manerov","psc":"68341"},
  {"name":"Nové Hvězdlice","psc":"68341"},
  {"name":"Pavlovice","psc":"68341"},
  {"name":"Staré Hvězdlice","psc":"68341"},
  {"name":"Holubice","psc":"68351"},
  {"name":"Hostěrádky-Rešov","psc":"68352"},
  {"name":"Hrušky","psc":"68352"},
  {"name":"Křenovice","psc":"68352"},
  {"name":"Šaratice","psc":"68352"},
  {"name":"Zbýšov","psc":"68352"},
  {"name":"Bošovice","psc":"68354"},
  {"name":"Lovčičky","psc":"68354"},
  {"name":"Milešovice","psc":"68354"},
  {"name":"Otnice","psc":"68354"},
  {"name":"Heršpice","psc":"68401"},
  {"name":"Hodějice (část)","psc":"68401"},
  {"name":"Kobeřice u Brna","psc":"68401"},
  {"name":"Němčany","psc":"68401"},
  {"name":"Nížkovice","psc":"68401"},
  {"name":"Slavkov u Brna","psc":"68401"},
  {"name":"Vážany nad Litavou","psc":"68401"},
  {"name":"Bohaté Málkovice","psc":"68501"},
  {"name":"Bučovice","psc":"68501"},
  {"name":"Černčín","psc":"68501"},
  {"name":"Hodějice (část)","psc":"68501"},
  {"name":"Kloboučky","psc":"68501"},
  {"name":"Kojátky","psc":"68501"},
  {"name":"Křižanovice","psc":"68501"},
  {"name":"Marefy","psc":"68501"},
  {"name":"Mouřínov","psc":"68501"},
  {"name":"Nevojice","psc":"68501"},
  {"name":"Rašovice","psc":"68501"},
  {"name":"Šardičky","psc":"68501"},
  {"name":"Vícemilice","psc":"68501"},
  {"name":"Jarošov","psc":"68601"},
  {"name":"Kostelany nad Moravou","psc":"68601"},
  {"name":"Mařatice (část)","psc":"68601"},
  {"name":"Rybárny","psc":"68601"},
  {"name":"Sady (část)","psc":"68601"},
  {"name":"Staré Hutě","psc":"68601"},
  {"name":"Staré Město (část)","psc":"68601"},
  {"name":"Stupava","psc":"68601"},
  {"name":"Uherské Hradiště (část)","psc":"68601"},
  {"name":"Vésky","psc":"68601"},
  {"name":"Staré Město (část)","psc":"68602"},
  {"name":"Staré Město (část)","psc":"68603"},
  {"name":"Kunovice","psc":"68604"},
  {"name":"Míkovice","psc":"68604"},
  {"name":"Podolí","psc":"68604"},
  {"name":"Popovice","psc":"68604"},
  {"name":"Mařatice (část)","psc":"68605"},
  {"name":"Sady (část)","psc":"68605"},
  {"name":"Uherské Hradiště (část)","psc":"68605"},
  {"name":"Uherské Hradiště (část)","psc":"68606"},
  {"name":"Babice","psc":"68703"},
  {"name":"Huštěnovice","psc":"68703"},
  {"name":"Kudlovice","psc":"68703"},
  {"name":"Jankovice","psc":"68704"},
  {"name":"Košíky","psc":"68704"},
  {"name":"Sušice","psc":"68704"},
  {"name":"Traplice","psc":"68704"},
  {"name":"Jalubí","psc":"68705"},
  {"name":"Modrá","psc":"68706"},
  {"name":"Salaš","psc":"68706"},
  {"name":"Velehrad","psc":"68706"},
  {"name":"Tupesy","psc":"68707"},
  {"name":"Břestek","psc":"68708"},
  {"name":"Buchlovice","psc":"68708"},
  {"name":"Boršice","psc":"68709"},
  {"name":"Stříbrnice","psc":"68709"},
  {"name":"Tučapy","psc":"68709"},
  {"name":"Zlechov","psc":"68710"},
  {"name":"Topolná","psc":"68711"},
  {"name":"Bílovice","psc":"68712"},
  {"name":"Částkov","psc":"68712"},
  {"name":"Javorovec","psc":"68712"},
  {"name":"Kněžpole","psc":"68712"},
  {"name":"Mistřice","psc":"68712"},
  {"name":"Nedachlebice","psc":"68712"},
  {"name":"Svárov","psc":"68712"},
  {"name":"Včelary","psc":"68712"},
  {"name":"Zlámanec","psc":"68712"},
  {"name":"Březolupy","psc":"68713"},
  {"name":"Chylice","psc":"68722"},
  {"name":"Ostrožská Nová Ves","psc":"68722"},
  {"name":"Ostrožská Lhota","psc":"68723"},
  {"name":"Kvačice","psc":"68724"},
  {"name":"Ostrožské Předměstí","psc":"68724"},
  {"name":"Uherský Ostroh","psc":"68724"},
  {"name":"Hluk","psc":"68725"},
  {"name":"Šumice","psc":"68731"},
  {"name":"Nezdenice","psc":"68732"},
  {"name":"Rudice","psc":"68732"},
  {"name":"Drslavice","psc":"68733"},
  {"name":"Hradčovice","psc":"68733"},
  {"name":"Lhotka","psc":"68733"},
  {"name":"Veletiny","psc":"68733"},
  {"name":"Těšov","psc":"68734"},
  {"name":"Uherský Brod (část)","psc":"68734"},
  {"name":"Újezdec","psc":"68734"},
  {"name":"Ořechov","psc":"68737"},
  {"name":"Polešovice","psc":"68737"},
  {"name":"Vážany","psc":"68737"},
  {"name":"Nedakonice","psc":"68738"},
  {"name":"Hostějov","psc":"68741"},
  {"name":"Medlovice","psc":"68741"},
  {"name":"Újezdec","psc":"68741"},
  {"name":"Osvětimany","psc":"68742"},
  {"name":"Nivnice","psc":"68751"},
  {"name":"Korytná","psc":"68752"},
  {"name":"Suchá Loz","psc":"68753"},
  {"name":"Bánov","psc":"68754"},
  {"name":"Bystřice pod Lopeníkem","psc":"68755"},
  {"name":"Pašovice","psc":"68756"},
  {"name":"Prakšice","psc":"68756"},
  {"name":"Vlčnov","psc":"68761"},
  {"name":"Dolní Němčí","psc":"68762"},
  {"name":"Boršice u Blatnice","psc":"68763"},
  {"name":"Horní Němčí","psc":"68764"},
  {"name":"Slavkov","psc":"68764"},
  {"name":"Strání","psc":"68765"},
  {"name":"Květná","psc":"68766"},
  {"name":"Březová","psc":"68767"},
  {"name":"Lopeník (část)","psc":"68767"},
  {"name":"Bojkovice","psc":"68771"},
  {"name":"Bzová","psc":"68771"},
  {"name":"Hostětín","psc":"68771"},
  {"name":"Komňa","psc":"68771"},
  {"name":"Krhov","psc":"68771"},
  {"name":"Pitín","psc":"68771"},
  {"name":"Přečkovice","psc":"68771"},
  {"name":"Záhorovice","psc":"68771"},
  {"name":"Lopeník (část)","psc":"68774"},
  {"name":"Starý Hrozenkov","psc":"68774"},
  {"name":"Vápenice","psc":"68774"},
  {"name":"Vyškovec","psc":"68774"},
  {"name":"Žítková","psc":"68774"},
  {"name":"Havřice","psc":"68801"},
  {"name":"Maršov","psc":"68801"},
  {"name":"Uherský Brod (část)","psc":"68801"},
  {"name":"Břeclav (část)","psc":"69002"},
  {"name":"Břeclav (část)","psc":"69003"},
  {"name":"Charvátská Nová Ves (část)","psc":"69006"},
  {"name":"Moravský Žižkov","psc":"69101"},
  {"name":"Velké Bílovice","psc":"69102"},
  {"name":"Rakvice","psc":"69103"},
  {"name":"Přítluky","psc":"69104"},
  {"name":"Zaječí","psc":"69105"},
  {"name":"Velké Pavlovice","psc":"69106"},
  {"name":"Němčičky","psc":"69107"},
  {"name":"Bořetice","psc":"69108"},
  {"name":"Vrbice","psc":"69109"},
  {"name":"Kobylí","psc":"69110"},
  {"name":"Brumovice","psc":"69111"},
  {"name":"Boleradice","psc":"69112"},
  {"name":"Sedlec","psc":"69121"},
  {"name":"Pasohlávky","psc":"69122"},
  {"name":"Cvrčovice","psc":"69123"},
  {"name":"Ivaň","psc":"69123"},
  {"name":"Nová Ves","psc":"69123"},
  {"name":"Pohořelice","psc":"69123"},
  {"name":"Pouzdřany (část)","psc":"69123"},
  {"name":"Smolín","psc":"69123"},
  {"name":"Přibice","psc":"69124"},
  {"name":"Vranovice","psc":"69125"},
  {"name":"Pouzdřany (část)","psc":"69126"},
  {"name":"Popice","psc":"69127"},
  {"name":"Dolní Věstonice","psc":"69129"},
  {"name":"Vlasatice","psc":"69130"},
  {"name":"Charvátská Nová Ves (část)","psc":"69141"},
  {"name":"Poštorná","psc":"69141"},
  {"name":"Úvaly","psc":"69142"},
  {"name":"Valtice","psc":"69142"},
  {"name":"Břeclav (část)","psc":"69143"},
  {"name":"Hlohovec","psc":"69143"},
  {"name":"Bulhary (část)","psc":"69144"},
  {"name":"Charvátská Nová Ves (část)","psc":"69144"},
  {"name":"Lednice","psc":"69144"},
  {"name":"Nejdek","psc":"69144"},
  {"name":"Podivín","psc":"69145"},
  {"name":"Břeclav (část)","psc":"69146"},
  {"name":"Ladná","psc":"69146"},
  {"name":"Lanžhot","psc":"69151"},
  {"name":"Kostice","psc":"69152"},
  {"name":"Tvrdonice (část)","psc":"69152"},
  {"name":"Tvrdonice (část)","psc":"69153"},
  {"name":"Týnec","psc":"69154"},
  {"name":"Moravská Nová Ves","psc":"69155"},
  {"name":"Hrušky","psc":"69156"},
  {"name":"Uherčice (část)","psc":"69162"},
  {"name":"Velké Němčice (část)","psc":"69163"},
  {"name":"Nosislav","psc":"69164"},
  {"name":"Velké Němčice (část)","psc":"69164"},
  {"name":"Křepice","psc":"69165"},
  {"name":"Nikolčice (část)","psc":"69165"},
  {"name":"Šakvice","psc":"69167"},
  {"name":"Diváky","psc":"69171"},
  {"name":"Nikolčice (část)","psc":"69171"},
  {"name":"Bohumilice","psc":"69172"},
  {"name":"Kašnice","psc":"69172"},
  {"name":"Klobouky u Brna","psc":"69172"},
  {"name":"Morkůvky","psc":"69172"},
  {"name":"Dambořice (část)","psc":"69173"},
  {"name":"Krumvíř","psc":"69173"},
  {"name":"Velké Hostěrádky","psc":"69174"},
  {"name":"Borkovany","psc":"69175"},
  {"name":"Šitbořice","psc":"69176"},
  {"name":"Brod nad Dyjí","psc":"69181"},
  {"name":"Březí","psc":"69181"},
  {"name":"Dobré Pole","psc":"69181"},
  {"name":"Horní Věstonice","psc":"69181"},
  {"name":"Nový Přerov","psc":"69181"},
  {"name":"Novosedly","psc":"69182"},
  {"name":"Drnholec","psc":"69183"},
  {"name":"Jevišovka","psc":"69183"},
  {"name":"Dolní Dunajovice","psc":"69185"},
  {"name":"Perná","psc":"69186"},
  {"name":"Milovice","psc":"69188"},
  {"name":"Bulhary (část)","psc":"69189"},
  {"name":"Bavory","psc":"69201"},
  {"name":"Klentnice","psc":"69201"},
  {"name":"Mikulov","psc":"69201"},
  {"name":"Nové Mlýny","psc":"69201"},
  {"name":"Pavlov","psc":"69201"},
  {"name":"Horní Bojanovice","psc":"69301"},
  {"name":"Hustopeče","psc":"69301"},
  {"name":"Kurdějov","psc":"69301"},
  {"name":"Starovice","psc":"69301"},
  {"name":"Starovičky","psc":"69301"},
  {"name":"Strachotín","psc":"69301"},
  {"name":"Uherčice (část)","psc":"69301"},
  {"name":"Hodonín","psc":"69501"},
  {"name":"Rohatec","psc":"69601"},
  {"name":"Ratíškovice","psc":"69602"},
  {"name":"Dubňany","psc":"69603"},
  {"name":"Mistřín","psc":"69604"},
  {"name":"Svatobořice","psc":"69604"},
  {"name":"Milotice","psc":"69605"},
  {"name":"Vacenovice","psc":"69606"},
  {"name":"Mutěnice","psc":"69611"},
  {"name":"Hovorany","psc":"69612"},
  {"name":"Šardice","psc":"69613"},
  {"name":"Čejč","psc":"69614"},
  {"name":"Karlín","psc":"69614"},
  {"name":"Terezín","psc":"69614"},
  {"name":"Čejkovice","psc":"69615"},
  {"name":"Dolní Bojanovice (část)","psc":"69616"},
  {"name":"Nový Poddvorov","psc":"69616"},
  {"name":"Starý Poddvorov","psc":"69616"},
  {"name":"Dolní Bojanovice (část)","psc":"69617"},
  {"name":"Lužice","psc":"69618"},
  {"name":"Mikulčice","psc":"69619"},
  {"name":"Těšice","psc":"69619"},
  {"name":"Josefov","psc":"69621"},
  {"name":"Prušánky","psc":"69621"},
  {"name":"Bukovany","psc":"69631"},
  {"name":"Nechvalín","psc":"69631"},
  {"name":"Ostrovánky","psc":"69631"},
  {"name":"Ždánice","psc":"69632"},
  {"name":"Archlebov","psc":"69633"},
  {"name":"Dražůvky","psc":"69633"},
  {"name":"Silničná","psc":"69634"},
  {"name":"Uhřice","psc":"69634"},
  {"name":"Zdravá Voda","psc":"69634"},
  {"name":"Žarošice","psc":"69634"},
  {"name":"Dambořice (část)","psc":"69635"},
  {"name":"Násedlovice","psc":"69636"},
  {"name":"Nenkovice","psc":"69637"},
  {"name":"Želetice","psc":"69637"},
  {"name":"Stavěšice","psc":"69638"},
  {"name":"Strážovice","psc":"69638"},
  {"name":"Lovčice","psc":"69639"},
  {"name":"Skoronice","psc":"69641"},
  {"name":"Vlkoš","psc":"69641"},
  {"name":"Vracov","psc":"69642"},
  {"name":"Žeravice","psc":"69647"},
  {"name":"Ježov","psc":"69648"},
  {"name":"Labuty","psc":"69648"},
  {"name":"Skalka","psc":"69648"},
  {"name":"Vřesovice","psc":"69648"},
  {"name":"Kelčany","psc":"69649"},
  {"name":"Žádovice","psc":"69649"},
  {"name":"Hýsly","psc":"69650"},
  {"name":"Moravany","psc":"69650"},
  {"name":"Čeložnice","psc":"69651"},
  {"name":"Kostelec","psc":"69651"},
  {"name":"Bohuslavice","psc":"69655"},
  {"name":"Lidéřovice","psc":"69661"},
  {"name":"Vnorovy","psc":"69661"},
  {"name":"Strážnice","psc":"69662"},
  {"name":"Tvarožná Lhota","psc":"69662"},
  {"name":"Hroznová Lhota","psc":"69663"},
  {"name":"Kozojídky","psc":"69663"},
  {"name":"Tasov","psc":"69663"},
  {"name":"Žeraviny","psc":"69663"},
  {"name":"Kněždub","psc":"69664"},
  {"name":"Petrov","psc":"69665"},
  {"name":"Sudoměřice","psc":"69666"},
  {"name":"Radějov","psc":"69667"},
  {"name":"Blatnice pod Svatým Antonínkem","psc":"69671"},
  {"name":"Blatnička","psc":"69671"},
  {"name":"Suchov (část)","psc":"69671"},
  {"name":"Lipov","psc":"69672"},
  {"name":"Hrubá Vrbka (část)","psc":"69673"},
  {"name":"Kuželov (část)","psc":"69673"},
  {"name":"Malá Vrbka","psc":"69673"},
  {"name":"Hrubá Vrbka (část)","psc":"69674"},
  {"name":"Javorník","psc":"69674"},
  {"name":"Kuželov (část)","psc":"69674"},
  {"name":"Louka (část)","psc":"69674"},
  {"name":"Nová Lhota","psc":"69674"},
  {"name":"Suchov (část)","psc":"69674"},
  {"name":"Vápenky","psc":"69674"},
  {"name":"Velká nad Veličkou","psc":"69674"},
  {"name":"Louka (část)","psc":"69676"},
  {"name":"Bzenec (část)","psc":"69681"},
  {"name":"Domanín","psc":"69683"},
  {"name":"Syrovín","psc":"69684"},
  {"name":"Těmice","psc":"69684"},
  {"name":"Bzenec (část)","psc":"69685"},
  {"name":"Moravský Písek","psc":"69685"},
  {"name":"Boršov","psc":"69701"},
  {"name":"Kyjov","psc":"69701"},
  {"name":"Nětčice","psc":"69701"},
  {"name":"Sobůlky","psc":"69701"},
  {"name":"Věteřov","psc":"69701"},
  {"name":"Milokošť","psc":"69801"},
  {"name":"Veselí nad Moravou","psc":"69801"},
  {"name":"Zarazice","psc":"69801"}
]